Item_ID,Item_Name,Number_Purchases,Item_Price,Net_Value
92,Final Critic,14,1.3599999999999999,38.599999999999994
84,Arcane Gem,11,2.23,24.53
39,"Betrayal, Whisper of Grieving Widows",11,2.35,25.850000000000005
30,Stormcaller,10,4.15,34.65
175,Woeful Adamantite Claymore,9,1.24,11.16
13,Serenity,9,1.49,13.41
31,Trickster,9,2.07,18.63
34,Retribution Axe,9,4.14,37.26
23,Crucifer,8,2.77,20.200000000000003
106,Crying Steel Sickle,8,2.29,18.32
107,"Splitter, Foe Of Subtlety",8,3.61,28.88
65,Conqueror Adamantite Mace,8,1.96,15.68
152,Darkheart,8,3.15,25.2
44,Bonecarvin Battle Axe,8,2.46,19.68
158,"Darkheart, Butcher of the Champion",7,3.56,24.919999999999998
172,Blade of the Grave,7,1.69,11.829999999999998
108,"Extraction, Quickblade Of Trembling Hands",7,3.39,23.73
130,Alpha,7,1.56,10.920000000000002
115,Spectral Diamond Doomblade,7,4.25,29.75
79,"Alpha, Oath of Zeal",7,2.88,20.159999999999997
66,Victor Iron Spikes,7,3.55,24.85
179,"Wolf, Promise of the Moonwalker",7,1.88,13.159999999999997
132,Persuasion,7,3.9,24.15
18,"Torchlight, Bond of Storms",7,1.77,12.389999999999999
154,Feral Katana,7,2.19,15.329999999999998
11,Brimstone,7,2.52,17.64
102,Avenger,6,4.16,24.96
15,Soul Infused Crystal,6,1.03,6.180000000000001
32,Orenmir,6,4.95,29.7
103,Singed Scalpel,6,4.87,29.220000000000002
73,Ritual Mace,6,3.74,22.440000000000005
121,Massacre,6,3.42,20.520000000000003
8,"Purgatory, Gem of Regret",6,3.91,23.46
85,Malificent Bag,6,2.17,13.02
124,Venom Claymore,6,2.7199999999999998,16.319999999999997
7,"Thorn, Satchel of Dark Souls",6,4.51,27.059999999999995
10,Sleepwalker,6,1.73,10.38
47,"Alpha, Reach of Ending Hope",6,1.55,9.3
145,Fiery Glass Crusader,6,4.45,26.7
22,Amnesia,6,3.5700000000000003,21.42
128,"Blazeguard, Reach of Eternity",6,4.0,24.0
148,"Warmonger, Gift of Suffering's End",6,3.96,23.76
91,Celeste,6,3.71,22.26
173,Stormfury Longsword,5,4.83,24.15
111,Misery's End,5,2.91,14.55
81,Dreamkiss,5,4.06,20.299999999999997
77,"Piety, Guardian of Riddles",5,3.68,18.400000000000002
46,Hopeless Ebon Dualblade,5,4.75,23.75
33,Curved Axe,5,1.35,6.75
40,Second Chance,5,2.34,11.7
95,Singed Onyx Warscythe,5,1.03,5.15
153,Mercenary Sabre,5,4.57,22.85
161,Devine,5,1.45,7.25
12,Dawne,5,4.3,21.5
14,Possessed Core,5,1.5899999999999999,7.949999999999999
100,Blindscythe,5,3.66,18.3
60,Wolf,5,1.8399999999999999,9.2
182,Toothpick,5,3.48,17.4
70,Hope's End,5,3.89,19.45
170,Shadowsteel,5,1.98,9.9
174,Primitive Blade,5,2.46,12.3
144,Blood Infused Guardian,5,2.86,14.299999999999999
183,Dragon's Greatsword,5,2.36,11.799999999999999
87,"Deluge, Edge of the West",5,2.2,11.0
160,Azurewrath,5,2.22,11.100000000000001
49,"The Oculus, Token of Lost Worlds",5,4.23,21.150000000000002
37,"Shadow Strike, Glory of Ending Hope",5,1.9300000000000002,9.65
48,"Rage, Legacy of the Lone Victor",5,4.32,21.6
78,"Glimmer, Ender of the Moon",5,2.33,11.65
171,Scalpel,5,3.62,18.1
68,"Storm-Weaver, Slayer of Inception",5,2.49,12.450000000000001
120,Agatha,5,1.9100000000000001,9.55
159,"Oathbreaker, Spellblade of Trials",5,3.01,15.049999999999999
140,Striker,5,3.8200000000000003,19.1
57,"Despair, Favor of Due Diligence",5,3.81,19.05
123,Twilight's Carver,5,1.1400000000000001,5.700000000000001
110,Suspension,5,2.11,10.549999999999999
134,Undead Crusader,4,4.67,18.68
38,"The Void, Vengeance of Dark Magic",4,2.8200000000000003,11.280000000000001
20,Netherbane,4,1.48,5.92
27,"Riddle, Tribute of Ended Dreams",4,3.96,15.84
52,Hatred,4,4.39,17.56
82,Nirvana,4,1.11,4.44
16,Restored Bauble,4,3.11,12.44
63,Stormfury Mace,4,1.27,5.08
26,Unholy Wand,4,1.88,7.52
97,"Swan Song, Gouger Of Terror",4,3.58,14.32
131,Fury,4,4.82,19.28
93,Apocalyptic Battlescythe,4,3.91,15.64
54,Eternal Cleaver,4,3.14,12.56
61,Ragnarok,4,3.9699999999999998,15.879999999999999
75,Brutality Ivory Warmace,4,1.72,6.88
143,Frenzied Scimitar,4,2.6,10.4
137,"Aetherius, Boon of the Blessed",4,4.75,19.0
176,Relentless Iron Skewer,4,2.9699999999999998,11.879999999999999
157,"Spada, Etcher of Hatred",4,2.21,8.84
71,Demise,4,4.07,16.28
25,Hero Cane,4,1.03,4.12
83,Lifebender,4,3.51,14.04
117,"Heartstriker, Legacy of the Light",4,4.15,16.6
67,"Celeste, Incarnation of the Corrupted",4,2.31,9.24
99,"Expiration, Warscythe Of Lost Worlds",4,4.53,18.12
86,Stormfury Lantern,4,1.28,5.12
98,"Deadline, Voice Of Subtlety",4,3.62,14.48
133,Faith's Scimitar,4,3.8200000000000003,15.280000000000001
104,Gladiator's Glaive,4,1.3599999999999999,5.4399999999999995
169,"Interrogator, Blood Blade of the Queen",4,3.32,13.28
129,"Fate, Vengeance of Eternal Justice",4,1.55,6.2
76,Haunted Bronzed Bludgeon,4,4.12,16.48
177,"Winterthorn, Defender of Shifting Worlds",4,4.89,19.56
119,"Stormbringer, Dark Blade of Ending Misery",4,2.32,9.28
114,Yearning Mageblade,4,1.79,7.16
151,Severance,4,1.85,7.4
125,Whistling Mithril Warblade,4,4.32,17.28
41,Orbit,3,1.16,3.4799999999999995
113,Solitude's Reaver,3,2.67,8.01
162,Abyssal Shard,3,2.04,6.12
6,Rusty Skull,3,1.2,3.5999999999999996
29,"Chaos, Ender of the End",3,3.79,11.370000000000001
69,"Frenzy, Defender of the Harvest",3,1.06,3.18
142,Righteous Might,3,4.36,13.080000000000002
21,Souleater,3,3.27,9.81
5,Putrid Fan,3,1.32,3.96
135,Warped Diamond Crusader,3,4.66,13.98
163,Thunderfury Scimitar,3,3.02,9.06
166,Thirsty Iron Reaver,3,4.25,12.75
165,Bone Crushing Silver Skewer,3,3.37,10.11
50,Dawn,3,2.55,7.6499999999999995
17,"Lazarus, Terror of the Earth",3,3.47,10.41
127,"Heartseeker, Reaver of Souls",3,3.21,9.629999999999999
35,Heartless Bone Dualblade,3,2.63,7.89
42,The Decapitator,3,4.82,14.46
53,Vengeance Cleaver,3,3.7,11.100000000000001
105,Hailstorm Shadowsteel Scythe,3,3.73,11.19
122,Unending Tyranny,3,1.21,3.63
181,Reaper's Toll,3,4.5600000000000005,13.680000000000001
51,Endbringer,3,2.67,8.01
139,"Mercy, Katana of Dismay",3,4.37,13.11
90,Betrayer,3,1.67,5.01
155,War-Forged Gold Deflector,3,3.73,11.19
118,"Ghost Reaver, Longsword of Magic",3,2.77,8.31
94,Mourning Blade,3,1.82,5.46
45,Glinting Glass Edge,3,2.46,7.38
36,Spectral Bone Axe,3,2.98,8.94
178,"Oathbreaker, Last Hope of the Breaking Storm",2,2.41,4.82
150,Deathraze,2,4.54,9.08
56,Foul Titanium Battle Axe,2,4.33,8.66
96,Blood-Forged Skeletal Spine,2,4.77,9.54
80,Dreamsong,2,3.81,7.62
146,Warped Iron Scimitar,2,4.08,8.16
167,"Malice, Legacy of the Queen",2,2.38,4.76
64,Fusion Pummel,2,3.58,7.16
55,Vindictive Glass Edge,2,4.26,8.52
149,"Tranquility, Razor of Black Magic",2,2.47,4.94
116,Renewed Skeletal Katana,2,2.37,4.74
89,"Blazefury, Protector of Delusions",2,1.5,3.0
24,Warped Fetish,2,2.41,4.82
112,Worldbreaker,2,3.29,6.58
58,"Freak's Bite, Favor of Holy Might",2,3.03,6.06
62,Piece Maker,2,4.36,8.72
72,Winter's Bite,2,1.3900000000000001,2.7800000000000002
74,Yearning Crusher,2,1.06,2.12
9,"Thorn, Conqueror of the Corrupted",2,2.04,4.08
88,"Emberling, Defender of Delusions",2,4.1,8.2
19,"Pursuit, Cudgel of Necromancy",2,3.98,7.96
136,Ghastly Adamantite Protector,1,3.3,3.3
109,"Downfall, Scalpel Of The Emperor",1,3.2,3.2
156,Soul-Forged Steel Shortsword,1,1.16,1.16
43,Foul Edge,1,2.38,2.38
147,"Hellreaver, Heirloom of Inception",1,3.59,3.59
168,"Sun Strike, Jaws of Twisted Visions",1,2.64,2.64
59,"Lightning, Etcher of the King",1,1.65,1.65
3,Phantomlight,1,1.79,1.79
164,Exiled Doomblade,1,1.92,1.92
2,Verdict,1,3.4,3.4
28,"Flux, Destroyer of Due Diligence",1,3.04,3.04
126,Exiled Mithril Longsword,1,3.25,3.25
0,Splinter,1,1.82,1.82
4,Bloodlord's Fetish,1,2.2800000000000002,2.2800000000000002
