digraph Tree {
node [shape=box, style="filled", color="black"] ;
graph [ranksep=equally, splines=polyline] ;
0 [label="renda <= 1.5\nentropy = 1.531\nsamples = 14\nvalue = [6, 5, 3]\nclass = alto", fillcolor="#e581391c"] ;
1 [label="renda <= 0.5\nentropy = 0.863\nsamples = 7\nvalue = [5, 0, 2]\nclass = alto", fillcolor="#e5813999"] ;
0 -> 1 [labeldistance=2.5, labelangle=45, headlabel="True"] ;
2 [label="entropy = 0.0\nsamples = 3\nvalue = [3, 0, 0]\nclass = alto", fillcolor="#e58139ff"] ;
1 -> 2 ;
3 [label="historia <= 0.5\nentropy = 1.0\nsamples = 4\nvalue = [2, 0, 2]\nclass = alto", fillcolor="#e5813900"] ;
1 -> 3 ;
4 [label="entropy = 0.0\nsamples = 1\nvalue = [0, 0, 1]\nclass = baixo", fillcolor="#8139e5ff"] ;
3 -> 4 ;
5 [label="divida <= 0.5\nentropy = 0.918\nsamples = 3\nvalue = [2, 0, 1]\nclass = alto", fillcolor="#e581397f"] ;
3 -> 5 ;
6 [label="entropy = 0.0\nsamples = 2\nvalue = [2, 0, 0]\nclass = alto", fillcolor="#e58139ff"] ;
5 -> 6 ;
7 [label="entropy = 0.0\nsamples = 1\nvalue = [0, 0, 1]\nclass = baixo", fillcolor="#8139e5ff"] ;
5 -> 7 ;
8 [label="historia <= 1.5\nentropy = 1.149\nsamples = 7\nvalue = [1, 5, 1]\nclass = moderado", fillcolor="#39e581aa"] ;
0 -> 8 [labeldistance=2.5, labelangle=-45, headlabel="False"] ;
9 [label="historia <= 0.5\nentropy = 0.65\nsamples = 6\nvalue = [1, 5, 0]\nclass = moderado", fillcolor="#39e581cc"] ;
8 -> 9 ;
10 [label="entropy = 0.0\nsamples = 3\nvalue = [0, 3, 0]\nclass = moderado", fillcolor="#39e581ff"] ;
9 -> 10 ;
11 [label="garantias <= 0.5\nentropy = 0.918\nsamples = 3\nvalue = [1, 2, 0]\nclass = moderado", fillcolor="#39e5817f"] ;
9 -> 11 ;
12 [label="entropy = 0.0\nsamples = 1\nvalue = [0, 1, 0]\nclass = moderado", fillcolor="#39e581ff"] ;
11 -> 12 ;
13 [label="entropy = 1.0\nsamples = 2\nvalue = [1, 1, 0]\nclass = alto", fillcolor="#e5813900"] ;
11 -> 13 ;
14 [label="entropy = 0.0\nsamples = 1\nvalue = [0, 0, 1]\nclass = baixo", fillcolor="#8139e5ff"] ;
8 -> 14 ;
{rank=same ; 0} ;
{rank=same ; 1; 8} ;
{rank=same ; 3; 9} ;
{rank=same ; 5; 11} ;
{rank=same ; 2; 4; 6; 7; 10; 12; 13; 14} ;
}